{
	"for loop": {
		"prefix": "for",
		"body": [
			"FOR LOCAL ${1:index} := ${2:lower} AS INT TO ${3:upper}",
			"\t$0",
			"NEXT"
		],
		"description": "for loop"
	},
	"foreach loop": {
		"prefix": "fore",
		"body": [
			"FOREACH LOCAL ${1:iterator} AS OBJECT IN ${2:list}",
			"\t$0",
			"NEXT"
		],
		"description": "foreach loop"
	},
    "if statement": {
        "prefix": "if",
        "body": [
            "IF ${1:condition}",
            "\t$0",
            "ENDIF"
        ],
        "description": "if statement"
    },
    "if-else statement": {
        "prefix": "if-else",
        "body": [
            "IF ${1:condition}",
            "\t$2",
            "ELSE",
            "\t$0",
            "ENDIF"
        ],
        "description": "if-else statement"
    },
    "if-elseif-else statement": {
        "prefix": "if-elif-el",
        "body": [
            "IF ${1:condition}",
            "\t$2",
            "ELSEIF ${3:condition}",
            "\t$4",
            "ELSE",
            "\t$0",
            "ENDIF"
        ],
        "description": "if-elseif-else statement"
    },
	"procedure": {
		"prefix": "proc",
		"body": [
			"PROCEDURE ${1:name}() AS VOID",
			"\t$0",
			"END PROCEDURE"
		],
		"description": "procedure"
	},
	"function": {
		"prefix": "func",
		"body": [
			"FUNCTION ${1:name}() AS ${2:type}",
			"\t$0",
			"\tRETURN ${3:returnvalue}",
			"END FUNCTION"
		],
		"description": "function"
	},
	"method sub": {
		"prefix": "mets",
		"body": [
			"METHOD ${1:name}() AS VOID",
			"\t$0",
			"RETURN"
		],
		"description": "method sub"
	},
	"method function": {
		"prefix": "metf",
		"body": [
			"METHOD ${1:name}() AS ${2:type}",
			"\t$0",
			"RETURN ${3:returnvalue}"
		],
		"description": "method function"
	},
	"switch case": {
		"prefix": "swi",
		"body": [
			"SWITCH ${1:switch}",
			"CASE ${2:case}",
			"\t\t$3",
			"OTHERWISE",
			"\t\t$0",
			"END SWITCH"
		],
		"description": "switch case"
	},
	"while loop": {
		"prefix": "while",
		"body": [
			"DO WHILE ${1:condition}",
			"\t$0",
			"ENDDO"
		],
		"description": "while loop"
	},
	"repeat until loop": {
		"prefix": "rep",
		"body": [
			"REPEAT",
			"\t$0",
			"UNTIL ${1:condition}"
		],
		"description": "repeat until loop"
	}
}